module gitlab.com/erudinsky/jokectl

go 1.21

require github.com/spf13/cobra v1.8.0

require (
	github.com/inconshreveable/mousetrap v1.1.0 // indirect
	github.com/mitchellh/colorstring v0.0.0-20190213212951-d06e56a500db // indirect
	github.com/rivo/uniseg v0.4.4 // indirect
	github.com/schollz/progressbar/v3 v3.14.1 // indirect
	github.com/spf13/pflag v1.0.5 // indirect
	golang.org/x/sys v0.15.0 // indirect
	golang.org/x/term v0.15.0 // indirect
)
